t;Y1;Y2;Y3;Y4;Y5
0;1;1;1;0;1
0.0001;0.999507060503549;1.06275872928043;1.06223485352757;0.0313948403970313;1.03090190090058
0.0002;0.99802872799289;1.12527002950839;1.12305181619879;0.0627587292804297;1.06078745727332
0.0003;0.99556645992499;1.18728744713136;1.18202356065395;0.0940607456510093;1.089627205576
0.0004;0.992122683798212;1.2485664757507;1.23873112282226;0.125270029508395;1.11739271330661
0.0005;0.987700794759095;1.30886552009893;1.29276751443449;0.156355812275248;1.14405660703434
0.0006;0.982305152255152;1.3679468485397;1.34374123733175;0.18728744713136;1.16959259938651
0.0007;0.975941075736982;1.42557753033521;1.39127966850181;0.218034439227712;1.19397551496469
0.0008;0.968614839413932;1.4815303539859;1.43503228591292;0.2485664757507;1.21718131516463
0.0009;0.96033366606849;1.53558472302183;1.47467370661832;0.278853455806905;1.2391871218754
0.001;0.951105719935495;1.58752752571389;1.50990651026153;0.308865520098932;1.25997124003443
0.0011;0.940940098653186;1.63715397527627;1.54046382300691;0.338573080363062;1.27951317901625
0.0012;0.929846824294036;1.68426841724728;1.56611163903612;0.3679468485397;1.29779367283374
0.0013;0.917836833484197;1.72868510086575;1.58665085906993;0.396957865647857;1.31479469913205
0.0014;0.904921966621314;1.77022891140155;1.6019190278754;0.425577530335206;1.33049949695652
0.0015;0.891114956201324;1.80873606055313;1.61179175537956;0.453777627075545;1.34489258327687
0.0016;0.876429414265754;1.84405473219009;1.61618380880735;0.481530353985902;1.35795976825166
0.0017;0.860879818981897;1.87604568089498;1.61504986617064;0.508808350235819;1.36968816921772
0.0018;0.844481500369093;1.90458278094447;1.60838492442913;0.535584723021826;1.38006622339092
0.0019;0.82725062518518;1.92955352356559;1.5962243586979;0.561833074080486;1.38908369926567
0.002;0.809204180988032;1.95085946050647;1.57864363196189;0.587527525713892;1.39673170670192
0.0021;0.79035995938788;1.96841659217297;1.55575765784826;0.612642746301945;1.40300270568982
0.0022;0.770736538506935;1.98215569880072;1.52771982207547;0.637153975276265;1.4078905137832
0.0023;0.750353264663615;1.99202261335714;1.49472067121628;0.661037047531116;1.41139031219473
0.0024;0.729230233299407;1.99797843509729;1.45698628035318;0.684268417247276;1.41349865054668
0.0025;0.7073882691672;1.99999968293183;1.4147763140441;0.706825181105366;1.41421345027257
0.0026;0.684848905800595;1.99807838800221;1.36838179772713;0.728685100865749;1.41353400666634
0.0027;0.66163436428445;1.99222212509824;1.31812261925279;0.749826625292748;1.4114609895772
0.0028;0.637767531347575;1.9824539827942;1.26434478261682;0.770228911401552;1.40799644274913
0.0029;0.613271936799188;1.96881247242104;1.20741743815605;0.78987184500688;1.40314378180607
0.003;0.588171730331375;1.95135137623383;1.14772971544396;0.80873606055313;1.39690779088451
0.0031;0.56249165771041;1.93013953537283;1.08568738686426;0.826802960206478;1.38929461791689
0.0032;0.536257036380425;1.90526057845426;1.02170939133434;0.84405473219009;1.38031176857051
0.0033;0.509493730503476;1.8768125918608;0.956224248883055;0.860474368344375;1.36996809884785
0.0034;0.482228125460609;1.8449077330317;0.889666397747656;0.876045680894979;1.35827380635559
0.0035;0.454487101839063;1.80967178827717;0.822472486334003;0.890753318411966;1.34524042025103
0.0036;0.426298008931269;1.77124367686028;0.755077652777637;0.904582780944472;1.33088078987574
0.0037;0.397688637771754;1.72977490330168;0.687911824945813;0.917520434315905;1.31520907208766
0.0038;0.368687193738544;1.68542896006634;0.621396073532533;0.929553523565586;1.29824071730413
0.0039;0.339322268746075;1.63838068298732;0.555939050421002;0.940670185523607;1.27999245426968
0.004;0.309622813057025;1.5888155619678;0.491933543725247;0.95085946050647;1.26048227356349
0.0041;0.279618106740859;1.53692900967895;0.429753179881533;0.960111303122017;1.23972940986288
0.0042;0.249337730807222;1.48292559113694;0.369749301850043;0.968416592172968;1.21775432298019
0.0043;0.218811538042644;1.42701821719628;0.312248050919589;0.975767139649319;1.19457867769196
0.0044;0.188069623579305;1.36942730513944;0.257547677796798;0.982155698800724;1.17022532238003
0.0045;0.157142295224877;1.31037990967204;0.205916106622432;0.987575971280923;1.1447182665058
0.0046;0.12606004358269;1.25010882774963;0.157588773309223;0.99202261335714;1.11808265693983
0.0047;0.09485351199169;1.18885168076547;0.112766757157828;0.995491241178365;1.09034475317006
0.0048;0.0635534663158146;1.12684997771773;0.0716152221018603;0.997978435097294;1.06153190141311
0.0049;0.0321907646125725;1.06434816304964;0.0342621811825548;0.999481743041692;1.03167250765426
0.005;0.000796326710733263;1.00159265291649;0.000797594982791589;0.999999682931835;1.00079600964257
0.0051;-0.0305988962728815;0.938830863679114;-0.028727188215497;0.999531744141666;0.968932847868785
0.0052;-0.0619639524474549;0.876310236453997;-0.0542996458208534;0.99807838800221;0.936114435554755
0.0053;-0.0932679196629931;0.81427726156577;-0.0759459462151182;0.995641047346752;0.902373127683759
0.0054;-0.124479935995824;0.75297650674826;-0.0937304673663825;0.992222125098244;0.86774218910242
0.0055;-0.155569230174719;0.692649652925443;-0.107754973286397;0.987824991900309;0.83225576172559
0.0056;-0.186505151917642;0.633534541373752;-0.118157455883985;0.982453982794196;0.795948830876553
0.0057;-0.217257202149222;0.575864236022388;-0.125110652736023;0.976114392944952;0.75885719079573
0.0058;-0.247795063069146;0.519866104588509;-0.128820254174021;0.968812472421035;0.721017409351889
0.0059;-0.278088628041845;0.46576092217001;-0.129522815841763;0.960555420032496;0.68246679199065
0.006;-0.308108031277993;0.413762000829972;-0.127483395493366;0.951351376233828;0.643243344955835
0.0061;-0.33782367727856;0.36407434860447;-0.122992935248358;0.941209415098463;0.603385737819904
0.0062;-0.367206270012392;0.316893861249366;-0.116365412779204;0.930139535372831;0.562933265360439
0.0063;-0.396226841798558;0.272406549912671;-0.107934786957139;0.918152650618807;0.521925808820249
0.0064;-0.42485678186497;0.230787807777404;-0.0980517653059791;0.90526057845426;0.48040379658929
0.0065;-0.453067864555149;0.192201718566249;-0.0870804221946403;0.891476028902313;0.438408164347163
0.0066;-0.480832277155305;0.156800409634258;-0.0753946980233251;0.876812591860794;0.395980314705489
0.0067;-0.508122647314304;0.124723452200057;-0.0633748107140721;0.861284723704249;0.353162076389945
0.0068;-0.534912070029497;0.0960973110801722;-0.0514036115941634;0.844907733031695;0.309995663002198
0.00690000000000001;-0.561174134171799;0.0710348460959256;-0.039862918253908;0.827697765574205;0.266523631402406
0.00700000000000001;-0.586882948523861;0.0496348671186226;-0.0291298571641673;0.809671788277163;0.222788839753303
0.00710000000000001;-0.61201316730568;0.031981744507285;-0.0195732487518645;0.790847572572913;0.178834405267233
0.00720000000000001;-0.636540015162473;0.0181450764747961;-0.011550067254391;0.771243676860276;0.134703661697803
0.00730000000000001;-0.660439311590176;0.00817941469388417;-0.00540200700963943;0.750879428208214;0.0904401166180374
0.00740000000000001;-0.683687494774496;0.0021240492247514;-0.00145218589324799;0.729774903301678;0.0460874085271827
0.00750000000000001;-0.706261644820007;2.85361228202774E-06;-2.01539690398348E-06;0.707950908648431;0.00168926382842372
0.00760000000000001;-0.728139506346397;0.0018241907635409;-0.00132826536204633;0.68542896006634;-0.042710546280057
0.00770000000000001;-0.749299510429579;0.00758087997664447;-0.0056803496551251;0.662231261471394;-0.087068248958185
0.00780000000000001;-0.769720795866036;0.017250225250994;-0.0132778571090635;0.63838068298732;-0.131340112878716
0.00790000000000001;-0.789383229739448;0.0307941047672564;-0.0243083498781118;0.613900738398413;-0.175482491341035
0.00800000000000001;-0.808267427269311;0.0481591211843155;-0.0389254489791977;0.588815561967794;-0.219451865301518
0.00810000000000001;-0.826354770921982;0.0692768121606395;-0.0572472242432105;0.563149884643936;-0.263204886278047
0.00820000000000001;-0.843627428765317;0.0940639202700759;-0.07935490319703;0.536929009678952;-0.306698419086366
0.0083;-0.860068372048796;0.122422721247917;-0.10529191056548;0.510178787682646;-0.34988958436615
0.0084;-0.875661391991812;0.154241409273118;-0.135063247146878;0.482925591136939;-0.392735800854873
0.0085;-0.890391115763568;0.189394537767665;-0.168635213802477;0.455196288395795;-0.435194827367773
0.0086;-0.904243021638826;0.22774351397523;-0.205935483235607;0.427018217196276;-0.47722480444255
0.0087;-0.917203453314572;0.269137145369216;-0.24685351914787;0.398419157706835;-0.518784295607737
0.0088;-0.929259633373477;0.313412235735941;-0.291241339274742;0.369427305139442;-0.559832328234035
0.0089;-0.940399675880888;0.360394228582902;-0.338914615748704;0.340071241952507;-0.600328433928381
0.009;-0.950612598102916;0.409897895335425;-0.389654103241726;0.310379909672041;-0.640232688430874
0.0091;-0.959888331334085;0.461728065608472;-0.443207382427031;0.280382580358811;-0.679505750975274
0.0092;-0.968217730823861;0.515680396674476;-0.49929090349851;0.250108827749629;-0.718108903074232
0.0093;-0.975592584792262;0.571542179093542;-0.557592311819671;0.219588498101229;-0.756004086691033
0.0094;-0.982005622525685;0.629093175329768;-0.617773035266368;0.188851680765469;-0.793153941760216
0.0095;-0.987450521544948;0.688106488047431;-0.679471110500898;0.157928678524867;-0.82952184302008
0.0096;-0.991921913838489;0.748349454663717;-0.742304223290024;0.126849977717731;-0.865071936120758
0.0097;-0.995415391154578;0.809584564631193;-0.805872936075068;0.0956462181823131;-0.899769172972265
0.0098;-0.997927509347316;0.871570395833598;-0.869764074335077;0.0643481630496388;-0.933579346297677
